com\mycompany\mavenproject3\models\User.class
com\mycompany\mavenproject3\mappers\UserMapper.class
com\mycompany\mavenproject3\services\UserService.class
com\mycompany\mavenproject3\controllers\AppController.class
